<?xml version='1.0' encoding='UTF-8'?>
<!-- Generated by CodeCogs with dvisvgm 2.9.1 -->
<svg version='1.1' xmlns='http://www.w3.org/2000/svg' xmlns:xlink='http://www.w3.org/1999/xlink' width='12.640898pt' height='8.186646pt' viewBox='-.239051 -.256238 12.640898 8.186646'>
<defs>
<path id='g1-48' d='M3.897385-2.542466C3.897385-3.395268 3.809714-3.913325 3.5467-4.423412C3.196015-5.124782 2.550436-5.300125 2.11208-5.300125C1.107846-5.300125 .74122-4.550934 .629639-4.327771C.342715-3.745953 .326775-2.956912 .326775-2.542466C.326775-2.016438 .350685-1.211457 .73325-.573848C1.099875 .01594 1.689664 .167372 2.11208 .167372C2.494645 .167372 3.180075 .047821 3.57858-.74122C3.873474-1.315068 3.897385-2.024408 3.897385-2.542466ZM2.11208-.055791C1.841096-.055791 1.291158-.183313 1.123786-1.020174C1.036115-1.474471 1.036115-2.223661 1.036115-2.638107C1.036115-3.188045 1.036115-3.745953 1.123786-4.184309C1.291158-4.99726 1.912827-5.076961 2.11208-5.076961C2.383064-5.076961 2.933001-4.941469 3.092403-4.216189C3.188045-3.777833 3.188045-3.180075 3.188045-2.638107C3.188045-2.16787 3.188045-1.45056 3.092403-1.004234C2.925031-.167372 2.375093-.055791 2.11208-.055791Z'/>
<path id='g0-33' d='M7.10137-4.495143C7.10137-4.841843 7.005729-5.284184 6.587298-5.284184C6.348194-5.284184 6.073225-4.985305 6.073225-4.746202C6.073225-4.638605 6.121046-4.566874 6.216687-4.459278C6.396015-4.25604 6.623163-3.93325 6.623163-3.371357C6.623163-2.940971 6.360149-2.259527 6.168867-1.888917C5.834122-1.231382 5.284184-.669489 4.662516-.669489C3.90934-.669489 3.622416-1.147696 3.490909-1.817186C3.622416-2.12802 3.897385-2.905106 3.897385-3.21594C3.897385-3.347447 3.849564-3.455044 3.694147-3.455044C3.610461-3.455044 3.514819-3.407223 3.455044-3.311582C3.287671-3.048568 3.132254-2.10411 3.144209-1.853051C2.917061-1.41071 2.271482-.669489 1.506351-.669489C.705355-.669489 .490162-1.374844 .490162-2.056289C.490162-3.299626 1.267248-4.387547 1.482441-4.686426C1.601993-4.865753 1.685679-4.985305 1.685679-5.009215C1.685679-5.092902 1.637858-5.224408 1.530262-5.224408C1.338979-5.224408 1.279203-5.068991 1.183562-4.925529C.573848-3.981071 .143462-2.654047 .143462-1.506351C.143462-.765131 .418431 .119552 1.315068 .119552C2.307347 .119552 2.929016-.729265 3.180075-1.183562C3.275716-.514072 3.634371 .119552 4.507098 .119552C5.415691 .119552 5.989539-.681445 6.419925-1.649813C6.73076-2.343213 7.10137-3.837609 7.10137-4.495143Z'/>
</defs>
<g id='page1' transform='matrix(1.13 0 0 1.13 -63.986043 -68.58648)'>
<use x='56.413267' y='65.753425' xlink:href='#g0-33'/>
<use x='63.702518' y='67.546688' xlink:href='#g1-48'/>
</g>
</svg>