<?xml version='1.0' encoding='UTF-8'?>
<!-- Generated by CodeCogs with dvisvgm 2.9.1 -->
<svg version='1.1' xmlns='http://www.w3.org/2000/svg' xmlns:xlink='http://www.w3.org/1999/xlink' width='289.183899pt' height='32.719119pt' viewBox='-.239051 -.22797 289.183899 32.719119'>
<defs>
<path id='g1-0' d='M7.878456-2.749689C8.081694-2.749689 8.296887-2.749689 8.296887-2.988792S8.081694-3.227895 7.878456-3.227895H1.41071C1.207472-3.227895 .992279-3.227895 .992279-2.988792S1.207472-2.749689 1.41071-2.749689H7.878456Z'/>
<path id='g0-20' d='M2.988792 28.202242H6.133001V27.544707H3.646326V.179328H6.133001V-.478207H2.988792V28.202242Z'/>
<path id='g0-21' d='M2.654047 27.544707H.167372V28.202242H3.311582V-.478207H.167372V.179328H2.654047V27.544707Z'/>
<path id='g4-40' d='M3.88543 2.905106C3.88543 2.86924 3.88543 2.84533 3.682192 2.642092C2.486675 1.43462 1.817186-.537983 1.817186-2.976837C1.817186-5.296139 2.379078-7.292653 3.765878-8.703362C3.88543-8.810959 3.88543-8.834869 3.88543-8.870735C3.88543-8.942466 3.825654-8.966376 3.777833-8.966376C3.622416-8.966376 2.642092-8.105604 2.056289-6.933998C1.446575-5.726526 1.171606-4.447323 1.171606-2.976837C1.171606-1.912827 1.338979-.490162 1.960648 .789041C2.666002 2.223661 3.646326 3.000747 3.777833 3.000747C3.825654 3.000747 3.88543 2.976837 3.88543 2.905106Z'/>
<path id='g4-41' d='M3.371357-2.976837C3.371357-3.88543 3.251806-5.36787 2.582316-6.75467C1.876961-8.18929 .896638-8.966376 .765131-8.966376C.71731-8.966376 .657534-8.942466 .657534-8.870735C.657534-8.834869 .657534-8.810959 .860772-8.607721C2.056289-7.400249 2.725778-5.427646 2.725778-2.988792C2.725778-.669489 2.163885 1.327024 .777086 2.737733C.657534 2.84533 .657534 2.86924 .657534 2.905106C.657534 2.976837 .71731 3.000747 .765131 3.000747C.920548 3.000747 1.900872 2.139975 2.486675 .968369C3.096389-.251059 3.371357-1.542217 3.371357-2.976837Z'/>
<path id='g4-61' d='M8.069738-3.873474C8.237111-3.873474 8.452304-3.873474 8.452304-4.088667C8.452304-4.315816 8.249066-4.315816 8.069738-4.315816H1.028144C.860772-4.315816 .645579-4.315816 .645579-4.100623C.645579-3.873474 .848817-3.873474 1.028144-3.873474H8.069738ZM8.069738-1.649813C8.237111-1.649813 8.452304-1.649813 8.452304-1.865006C8.452304-2.092154 8.249066-2.092154 8.069738-2.092154H1.028144C.860772-2.092154 .645579-2.092154 .645579-1.876961C.645579-1.649813 .848817-1.649813 1.028144-1.649813H8.069738Z'/>
<path id='g4-105' d='M2.080199-7.364384C2.080199-7.675218 1.829141-7.950187 1.494396-7.950187C1.183562-7.950187 .920548-7.699128 .920548-7.376339C.920548-7.017684 1.207472-6.790535 1.494396-6.790535C1.865006-6.790535 2.080199-7.10137 2.080199-7.364384ZM.430386-5.140722V-4.794022C1.195517-4.794022 1.303113-4.722291 1.303113-4.136488V-.884682C1.303113-.3467 1.171606-.3467 .394521-.3467V0C.729265-.02391 1.303113-.02391 1.649813-.02391C1.78132-.02391 2.47472-.02391 2.881196 0V-.3467C2.10411-.3467 2.056289-.406476 2.056289-.872727V-5.272229L.430386-5.140722Z'/>
<path id='g4-110' d='M5.32005-2.905106C5.32005-4.016936 5.32005-4.351681 5.045081-4.734247C4.698381-5.200498 4.136488-5.272229 3.730012-5.272229C2.570361-5.272229 2.116065-4.27995 2.020423-4.040847H2.008468V-5.272229L.382565-5.140722V-4.794022C1.195517-4.794022 1.291158-4.710336 1.291158-4.124533V-.884682C1.291158-.3467 1.159651-.3467 .382565-.3467V0C.6934-.02391 1.338979-.02391 1.673724-.02391C2.020423-.02391 2.666002-.02391 2.976837 0V-.3467C2.211706-.3467 2.068244-.3467 2.068244-.884682V-3.108344C2.068244-4.363636 2.893151-5.033126 3.634371-5.033126S4.542964-4.423412 4.542964-3.694147V-.884682C4.542964-.3467 4.411457-.3467 3.634371-.3467V0C3.945205-.02391 4.590785-.02391 4.925529-.02391C5.272229-.02391 5.917808-.02391 6.228643 0V-.3467C5.630884-.3467 5.332005-.3467 5.32005-.705355V-2.905106Z'/>
<path id='g4-115' d='M3.921295-5.057036C3.921295-5.272229 3.921295-5.332005 3.801743-5.332005C3.706102-5.332005 3.478954-5.068991 3.395268-4.961395C3.024658-5.260274 2.654047-5.332005 2.271482-5.332005C.824907-5.332005 .394521-4.542964 .394521-3.88543C.394521-3.753923 .394521-3.335492 .848817-2.917061C1.231382-2.582316 1.637858-2.49863 2.187796-2.391034C2.84533-2.259527 3.000747-2.223661 3.299626-1.984558C3.514819-1.80523 3.670237-1.542217 3.670237-1.207472C3.670237-.6934 3.371357-.119552 2.319303-.119552C1.530262-.119552 .956413-.573848 .6934-1.769365C.645579-1.984558 .645579-1.996513 .633624-2.008468C.609714-2.056289 .561893-2.056289 .526027-2.056289C.394521-2.056289 .394521-1.996513 .394521-1.78132V-.155417C.394521 .059776 .394521 .119552 .514072 .119552C.573848 .119552 .585803 .107597 .789041-.143462C.848817-.227148 .848817-.251059 1.028144-.442341C1.482441 .119552 2.12802 .119552 2.331258 .119552C3.58655 .119552 4.208219-.573848 4.208219-1.518306C4.208219-2.163885 3.813699-2.546451 3.706102-2.654047C3.275716-3.024658 2.952927-3.096389 2.163885-3.239851C1.80523-3.311582 .932503-3.478954 .932503-4.196264C.932503-4.566874 1.183562-5.116812 2.259527-5.116812C3.56264-5.116812 3.634371-4.004981 3.658281-3.634371C3.670237-3.53873 3.753923-3.53873 3.789788-3.53873C3.921295-3.53873 3.921295-3.598506 3.921295-3.813699V-5.057036Z'/>
<path id='g2-59' d='M1.490411-.119552C1.490411 .398506 1.378829 .852802 .884682 1.346949C.852802 1.370859 .836862 1.3868 .836862 1.42665C.836862 1.490411 .900623 1.538232 .956413 1.538232C1.052055 1.538232 1.713574 .908593 1.713574-.02391C1.713574-.533998 1.522291-.884682 1.171606-.884682C.892653-.884682 .73325-.661519 .73325-.446326C.73325-.223163 .884682 0 1.179577 0C1.370859 0 1.490411-.111582 1.490411-.119552Z'/>
<path id='g2-76' d='M3.092403-4.821918C3.164134-5.092902 3.180075-5.180573 3.913325-5.180573C4.136488-5.180573 4.216189-5.180573 4.216189-5.332005C4.216189-5.347945 4.200249-5.443587 4.080697-5.443587C3.913325-5.443587 3.674222-5.427646 3.506849-5.419676H2.933001C2.10411-5.419676 1.912827-5.443587 1.857036-5.443587C1.825156-5.443587 1.697634-5.443587 1.697634-5.292154C1.697634-5.180573 1.801245-5.180573 1.928767-5.180573C2.191781-5.180573 2.422914-5.180573 2.422914-5.053051C2.422914-5.021171 2.414944-5.0132 2.391034-4.909589L1.323039-.629639C1.251308-.326775 1.235367-.263014 .645579-.263014C.494147-.263014 .398506-.263014 .398506-.111582C.398506 0 .502117 0 .637609 0H4.487173C4.686426 0 4.694396-.00797 4.758157-.159402C4.837858-.382565 5.419676-1.880946 5.419676-1.960648C5.419676-2.032379 5.355915-2.072229 5.300125-2.072229C5.212453-2.072229 5.196513-2.016438 5.140722-1.896887C4.853798-1.155666 4.511083-.263014 3.084433-.263014H2.072229C2.000498-.278954 1.976588-.278954 1.976588-.334745C1.976588-.398506 1.992528-.462267 2.008468-.510087L3.092403-4.821918Z'/>
<path id='g2-97' d='M3.124284-3.036613C3.052553-3.172105 2.82142-3.514819 2.335243-3.514819C1.3868-3.514819 .342715-2.406974 .342715-1.227397C.342715-.398506 .876712 .079701 1.490411 .079701C2.000498 .079701 2.438854-.326775 2.582316-.486177C2.725778 .063761 3.267746 .079701 3.363387 .079701C3.730012 .079701 3.913325-.223163 3.977086-.358655C4.136488-.645579 4.24807-1.107846 4.24807-1.139726C4.24807-1.187547 4.216189-1.243337 4.120548-1.243337S4.008966-1.195517 3.961146-.996264C3.849564-.557908 3.698132-.143462 3.387298-.143462C3.203985-.143462 3.132254-.294894 3.132254-.518057C3.132254-.653549 3.203985-.924533 3.251806-1.123786S3.419178-1.801245 3.451059-1.944707L3.610461-2.550436C3.650311-2.741719 3.737983-3.076463 3.737983-3.116314C3.737983-3.299626 3.58655-3.363387 3.482939-3.363387C3.363387-3.363387 3.164134-3.283686 3.124284-3.036613ZM2.582316-.860772C2.183811-.310834 1.769365-.143462 1.514321-.143462C1.147696-.143462 .964384-.478207 .964384-.892653C.964384-1.267248 1.179577-2.12005 1.354919-2.470735C1.586052-2.956912 1.976588-3.291656 2.343213-3.291656C2.86127-3.291656 3.012702-2.709838 3.012702-2.614197C3.012702-2.582316 2.81345-1.801245 2.765629-1.594022C2.662017-1.219427 2.662017-1.203487 2.582316-.860772Z'/>
<path id='g2-107' d='M2.327273-5.292154C2.335243-5.308095 2.359153-5.411706 2.359153-5.419676C2.359153-5.459527 2.327273-5.531258 2.231631-5.531258C2.199751-5.531258 1.952677-5.507347 1.769365-5.491407L1.323039-5.459527C1.147696-5.443587 1.067995-5.435616 1.067995-5.292154C1.067995-5.180573 1.179577-5.180573 1.275218-5.180573C1.657783-5.180573 1.657783-5.132752 1.657783-5.061021C1.657783-5.037111 1.657783-5.021171 1.617933-4.877709L.486177-.342715C.454296-.223163 .454296-.175342 .454296-.167372C.454296-.03188 .565878 .079701 .71731 .079701C.988294 .079701 1.052055-.175342 1.083935-.286924C1.163636-.621669 1.370859-1.466501 1.458531-1.801245C1.896887-1.753425 2.430884-1.601993 2.430884-1.147696C2.430884-1.107846 2.430884-1.067995 2.414944-.988294C2.391034-.884682 2.375093-.773101 2.375093-.73325C2.375093-.263014 2.725778 .079701 3.188045 .079701C3.52279 .079701 3.730012-.167372 3.833624-.318804C4.024907-.613699 4.152428-1.091905 4.152428-1.139726C4.152428-1.219427 4.088667-1.243337 4.032877-1.243337C3.937235-1.243337 3.921295-1.195517 3.889415-1.052055C3.785803-.67746 3.57858-.143462 3.203985-.143462C2.996762-.143462 2.948941-.318804 2.948941-.533998C2.948941-.637609 2.956912-.73325 2.996762-.916563C3.004732-.948443 3.036613-1.075965 3.036613-1.163636C3.036613-1.817186 2.215691-1.960648 1.809215-2.016438C2.10411-2.191781 2.375093-2.462765 2.470735-2.566376C2.909091-2.996762 3.267746-3.291656 3.650311-3.291656C3.753923-3.291656 3.849564-3.267746 3.913325-3.188045C3.482939-3.132254 3.482939-2.757659 3.482939-2.749689C3.482939-2.574346 3.618431-2.454795 3.793773-2.454795C4.008966-2.454795 4.24807-2.630137 4.24807-2.956912C4.24807-3.227895 4.056787-3.514819 3.658281-3.514819C3.196015-3.514819 2.781569-3.164134 2.327273-2.709838C1.865006-2.255542 1.665753-2.16787 1.538232-2.11208L2.327273-5.292154Z'/>
<path id='g2-108' d='M2.088169-5.292154C2.096139-5.308095 2.12005-5.411706 2.12005-5.419676C2.12005-5.459527 2.088169-5.531258 1.992528-5.531258L1.187547-5.467497C.892653-5.443587 .828892-5.435616 .828892-5.292154C.828892-5.180573 .940473-5.180573 1.036115-5.180573C1.41868-5.180573 1.41868-5.132752 1.41868-5.061021C1.41868-5.037111 1.41868-5.021171 1.378829-4.877709L.390535-.924533C.358655-.797011 .358655-.67746 .358655-.669489C.358655-.175342 .765131 .079701 1.163636 .079701C1.506351 .079701 1.689664-.191283 1.777335-.366625C1.920797-.629639 2.040349-1.099875 2.040349-1.139726C2.040349-1.187547 2.016438-1.243337 1.912827-1.243337C1.841096-1.243337 1.817186-1.203487 1.817186-1.195517C1.801245-1.171606 1.761395-1.028144 1.737484-.940473C1.617933-.478207 1.466501-.143462 1.179577-.143462C.988294-.143462 .932503-.326775 .932503-.518057C.932503-.669489 .956413-.757161 .980324-.860772L2.088169-5.292154Z'/>
<path id='g2-109' d='M1.594022-1.307098C1.617933-1.42665 1.697634-1.729514 1.721544-1.849066C1.745455-1.928767 1.793275-2.12005 1.809215-2.199751C1.825156-2.239601 2.088169-2.757659 2.438854-3.020672C2.709838-3.227895 2.972852-3.291656 3.196015-3.291656C3.490909-3.291656 3.650311-3.116314 3.650311-2.749689C3.650311-2.558406 3.602491-2.375093 3.514819-2.016438C3.459029-1.809215 3.323537-1.275218 3.275716-1.060025L3.156164-.581818C3.116314-.446326 3.060523-.207223 3.060523-.167372C3.060523 .01594 3.211955 .079701 3.315567 .079701C3.459029 .079701 3.57858-.01594 3.634371-.111582C3.658281-.159402 3.722042-.430386 3.761893-.597758L3.945205-1.307098C3.969116-1.42665 4.048817-1.729514 4.072727-1.849066C4.184309-2.279452 4.184309-2.287422 4.367621-2.550436C4.630635-2.940971 5.00523-3.291656 5.539228-3.291656C5.826152-3.291656 5.993524-3.124284 5.993524-2.749689C5.993524-2.311333 5.65878-1.39477 5.507347-1.012204C5.427646-.804981 5.403736-.749191 5.403736-.597758C5.403736-.143462 5.778331 .079701 6.121046 .079701C6.902117 .079701 7.228892-1.036115 7.228892-1.139726C7.228892-1.219427 7.165131-1.243337 7.10934-1.243337C7.013699-1.243337 6.997758-1.187547 6.973848-1.107846C6.782565-.446326 6.447821-.143462 6.144956-.143462C6.017435-.143462 5.953674-.223163 5.953674-.406476S6.017435-.765131 6.097136-.964384C6.216687-1.267248 6.567372-2.183811 6.567372-2.630137C6.567372-3.227895 6.152927-3.514819 5.579078-3.514819C5.029141-3.514819 4.574844-3.227895 4.216189-2.733748C4.152428-3.371357 3.642341-3.514819 3.227895-3.514819C2.86127-3.514819 2.375093-3.387298 1.936737-2.81345C1.880946-3.291656 1.498381-3.514819 1.123786-3.514819C.844832-3.514819 .645579-3.347447 .510087-3.076463C.318804-2.701868 .239103-2.311333 .239103-2.295392C.239103-2.223661 .294894-2.191781 .358655-2.191781C.462267-2.191781 .470237-2.223661 .526027-2.430884C.621669-2.82142 .765131-3.291656 1.099875-3.291656C1.307098-3.291656 1.354919-3.092403 1.354919-2.917061C1.354919-2.773599 1.315068-2.622167 1.251308-2.359153C1.235367-2.295392 1.115816-1.825156 1.083935-1.713574L.789041-.518057C.757161-.398506 .70934-.199253 .70934-.167372C.70934 .01594 .860772 .079701 .964384 .079701C1.107846 .079701 1.227397-.01594 1.283188-.111582C1.307098-.159402 1.370859-.430386 1.41071-.597758L1.594022-1.307098Z'/>
<path id='g2-120' d='M3.993026-3.180075C3.642341-3.092403 3.626401-2.781569 3.626401-2.749689C3.626401-2.574346 3.761893-2.454795 3.937235-2.454795S4.383562-2.590286 4.383562-2.933001C4.383562-3.387298 3.881445-3.514819 3.58655-3.514819C3.211955-3.514819 2.909091-3.251806 2.725778-2.940971C2.550436-3.363387 2.13599-3.514819 1.809215-3.514819C.940473-3.514819 .454296-2.518555 .454296-2.295392C.454296-2.223661 .510087-2.191781 .573848-2.191781C.669489-2.191781 .68543-2.231631 .70934-2.327273C.892653-2.909091 1.370859-3.291656 1.785305-3.291656C2.096139-3.291656 2.247572-3.068493 2.247572-2.781569C2.247572-2.622167 2.15193-2.255542 2.088169-2.000498C2.032379-1.769365 1.857036-1.060025 1.817186-.908593C1.705604-.478207 1.41868-.143462 1.060025-.143462C1.028144-.143462 .820922-.143462 .653549-.255044C1.020174-.342715 1.020174-.67746 1.020174-.68543C1.020174-.868742 .876712-.980324 .70137-.980324C.486177-.980324 .255044-.797011 .255044-.494147C.255044-.127522 .645579 .079701 1.052055 .079701C1.474471 .079701 1.769365-.239103 1.912827-.494147C2.088169-.103611 2.454795 .079701 2.83736 .079701C3.706102 .079701 4.184309-.916563 4.184309-1.139726C4.184309-1.219427 4.120548-1.243337 4.064757-1.243337C3.969116-1.243337 3.953176-1.187547 3.929265-1.107846C3.769863-.573848 3.315567-.143462 2.8533-.143462C2.590286-.143462 2.399004-.318804 2.399004-.653549C2.399004-.812951 2.446824-.996264 2.558406-1.44259C2.614197-1.681694 2.789539-2.383064 2.82939-2.534496C2.940971-2.948941 3.219925-3.291656 3.57858-3.291656C3.618431-3.291656 3.825654-3.291656 3.993026-3.180075Z'/>
<path id='g2-121' d='M4.128518-3.004732C4.160399-3.116314 4.160399-3.132254 4.160399-3.188045C4.160399-3.387298 4.000996-3.435118 3.905355-3.435118C3.865504-3.435118 3.682192-3.427148 3.57858-3.219925C3.56264-3.180075 3.490909-2.893151 3.451059-2.725778L2.972852-.812951C2.964882-.789041 2.622167-.143462 2.040349-.143462C1.649813-.143462 1.514321-.430386 1.514321-.789041C1.514321-1.251308 1.785305-1.960648 1.968618-2.422914C2.048319-2.622167 2.072229-2.693898 2.072229-2.83736C2.072229-3.275716 1.721544-3.514819 1.354919-3.514819C.565878-3.514819 .239103-2.391034 .239103-2.295392C.239103-2.223661 .294894-2.191781 .358655-2.191781C.462267-2.191781 .470237-2.239601 .494147-2.319303C.70137-3.012702 1.044085-3.291656 1.331009-3.291656C1.45056-3.291656 1.522291-3.211955 1.522291-3.028643C1.522291-2.86127 1.458531-2.677958 1.40274-2.534496C1.075965-1.689664 .940473-1.283188 .940473-.908593C.940473-.127522 1.530262 .079701 2.000498 .079701C2.375093 .079701 2.646077-.087671 2.83736-.270984C2.725778 .175342 2.646077 .486177 2.343213 .868742C2.080199 1.195517 1.761395 1.40274 1.40274 1.40274C1.267248 1.40274 .964384 1.378829 .804981 1.139726C1.227397 1.107846 1.259278 .749191 1.259278 .70137C1.259278 .510087 1.115816 .406476 .948443 .406476C.773101 .406476 .494147 .541968 .494147 .932503C.494147 1.307098 .836862 1.625903 1.40274 1.625903C2.215691 1.625903 3.132254 .972354 3.371357 .00797L4.128518-3.004732Z'/>
<path id='g3-25' d='M3.096389-4.507098H4.447323C4.124533-3.16812 3.921295-2.295392 3.921295-1.338979C3.921295-1.171606 3.921295 .119552 4.411457 .119552C4.662516 .119552 4.877709-.107597 4.877709-.310834C4.877709-.37061 4.877709-.394521 4.794022-.573848C4.471233-1.398755 4.471233-2.426899 4.471233-2.510585C4.471233-2.582316 4.471233-3.431133 4.722291-4.507098H6.06127C6.216687-4.507098 6.611208-4.507098 6.611208-4.889664C6.611208-5.152677 6.38406-5.152677 6.168867-5.152677H2.235616C1.960648-5.152677 1.554172-5.152677 1.004234-4.566874C.6934-4.220174 .310834-3.58655 .310834-3.514819S.37061-3.419178 .442341-3.419178C.526027-3.419178 .537983-3.455044 .597758-3.526775C1.219427-4.507098 1.841096-4.507098 2.139975-4.507098H2.82142C2.558406-3.610461 2.259527-2.570361 1.279203-.478207C1.183562-.286924 1.183562-.263014 1.183562-.191283C1.183562 .059776 1.398755 .119552 1.506351 .119552C1.853051 .119552 1.948692-.191283 2.092154-.6934C2.283437-1.303113 2.283437-1.327024 2.402989-1.80523L3.096389-4.507098Z'/>
<path id='g3-32' d='M5.618929-8.009963C5.618929-8.021918 5.66675-8.177335 5.66675-8.18929C5.66675-8.296887 5.571108-8.296887 5.535243-8.296887C5.427646-8.296887 5.415691-8.237111 5.36787-8.057783L3.395268-.143462C2.402989-.263014 2.032379-.765131 2.032379-1.482441C2.032379-1.745455 2.032379-2.020423 2.594271-3.502864C2.749689-3.93325 2.809465-4.088667 2.809465-4.303861C2.809465-4.841843 2.426899-5.272229 1.865006-5.272229C.765131-5.272229 .32279-3.53873 .32279-3.443088C.32279-3.395268 .37061-3.335492 .454296-3.335492C.561893-3.335492 .573848-3.383313 .621669-3.550685C.908593-4.590785 1.3868-5.033126 1.829141-5.033126C1.936737-5.033126 2.139975-5.021171 2.139975-4.638605C2.139975-4.590785 2.139975-4.327771 1.936737-3.801743C1.291158-2.10411 1.291158-1.841096 1.291158-1.566127C1.291158-.418431 2.247572 .02391 3.323537 .107597C3.227895 .478207 3.144209 .860772 3.048568 1.231382C2.857285 1.948692 2.773599 2.283437 2.773599 2.331258C2.773599 2.438854 2.86924 2.438854 2.905106 2.438854C2.929016 2.438854 2.976837 2.438854 3.000747 2.391034C3.048568 2.343213 3.53873 .334745 3.58655 .119552C4.028892 .119552 4.97335 .119552 6.049315-.992279C6.443836-1.422665 6.802491-1.972603 7.005729-2.486675C7.12528-2.797509 7.412204-3.861519 7.412204-4.471233C7.412204-5.188543 7.053549-5.272229 6.933998-5.272229C6.647073-5.272229 6.38406-4.985305 6.38406-4.746202C6.38406-4.60274 6.467746-4.519054 6.515567-4.471233C6.623163-4.363636 6.945953-4.040847 6.945953-3.419178C6.945953-2.988792 6.706849-2.10411 5.941719-1.243337C4.937484-.119552 4.016936-.119552 3.658281-.119552L5.618929-8.009963Z'/>
<path id='g3-59' d='M2.331258 .047821C2.331258-.645579 2.10411-1.159651 1.613948-1.159651C1.231382-1.159651 1.0401-.848817 1.0401-.585803S1.219427 0 1.625903 0C1.78132 0 1.912827-.047821 2.020423-.155417C2.044334-.179328 2.056289-.179328 2.068244-.179328C2.092154-.179328 2.092154-.011955 2.092154 .047821C2.092154 .442341 2.020423 1.219427 1.327024 1.996513C1.195517 2.139975 1.195517 2.163885 1.195517 2.187796C1.195517 2.247572 1.255293 2.307347 1.315068 2.307347C1.41071 2.307347 2.331258 1.422665 2.331258 .047821Z'/>
<path id='g3-76' d='M4.387547-7.244832C4.495143-7.699128 4.531009-7.81868 5.583064-7.81868C5.905853-7.81868 5.989539-7.81868 5.989539-8.045828C5.989539-8.16538 5.858032-8.16538 5.810212-8.16538C5.571108-8.16538 5.296139-8.141469 5.057036-8.141469H3.455044C3.227895-8.141469 2.964882-8.16538 2.737733-8.16538C2.642092-8.16538 2.510585-8.16538 2.510585-7.938232C2.510585-7.81868 2.618182-7.81868 2.797509-7.81868C3.526775-7.81868 3.526775-7.723039 3.526775-7.591532C3.526775-7.567621 3.526775-7.49589 3.478954-7.316563L1.865006-.884682C1.75741-.466252 1.733499-.3467 .896638-.3467C.669489-.3467 .549938-.3467 .549938-.131507C.549938 0 .621669 0 .860772 0H6.216687C6.479701 0 6.491656-.011955 6.575342-.227148L7.49589-2.773599C7.519801-2.833375 7.543711-2.905106 7.543711-2.940971C7.543711-3.012702 7.483935-3.060523 7.424159-3.060523C7.412204-3.060523 7.352428-3.060523 7.328518-3.012702C7.304608-3.000747 7.304608-2.976837 7.208966-2.749689C6.826401-1.697634 6.288418-.3467 4.267995-.3467H3.120299C2.952927-.3467 2.929016-.3467 2.857285-.358655C2.725778-.37061 2.713823-.394521 2.713823-.490162C2.713823-.573848 2.737733-.645579 2.761644-.753176L4.387547-7.244832Z'/>
<path id='g3-107' d='M3.359402-7.998007C3.371357-8.045828 3.395268-8.117559 3.395268-8.177335C3.395268-8.296887 3.275716-8.296887 3.251806-8.296887C3.239851-8.296887 2.809465-8.261021 2.594271-8.237111C2.391034-8.225156 2.211706-8.201245 1.996513-8.18929C1.709589-8.16538 1.625903-8.153425 1.625903-7.938232C1.625903-7.81868 1.745455-7.81868 1.865006-7.81868C2.47472-7.81868 2.47472-7.711083 2.47472-7.591532C2.47472-7.543711 2.47472-7.519801 2.414944-7.304608L.705355-.466252C.657534-.286924 .657534-.263014 .657534-.191283C.657534 .071731 .860772 .119552 .980324 .119552C1.315068 .119552 1.3868-.143462 1.482441-.514072L2.044334-2.749689C2.905106-2.654047 3.419178-2.295392 3.419178-1.721544C3.419178-1.649813 3.419178-1.601993 3.383313-1.422665C3.335492-1.243337 3.335492-1.099875 3.335492-1.0401C3.335492-.3467 3.789788 .119552 4.399502 .119552C4.94944 .119552 5.236364-.382565 5.332005-.549938C5.583064-.992279 5.738481-1.661768 5.738481-1.709589C5.738481-1.769365 5.69066-1.817186 5.618929-1.817186C5.511333-1.817186 5.499377-1.769365 5.451557-1.578082C5.284184-.956413 5.033126-.119552 4.423412-.119552C4.184309-.119552 4.028892-.239103 4.028892-.6934C4.028892-.920548 4.076712-1.183562 4.124533-1.362889C4.172354-1.578082 4.172354-1.590037 4.172354-1.733499C4.172354-2.438854 3.53873-2.833375 2.438854-2.976837C2.86924-3.239851 3.299626-3.706102 3.466999-3.88543C4.148443-4.65056 4.614695-5.033126 5.164633-5.033126C5.439601-5.033126 5.511333-4.961395 5.595019-4.889664C5.152677-4.841843 4.985305-4.531009 4.985305-4.291905C4.985305-4.004981 5.212453-3.90934 5.379826-3.90934C5.702615-3.90934 5.989539-4.184309 5.989539-4.566874C5.989539-4.913574 5.71457-5.272229 5.176588-5.272229C4.519054-5.272229 3.981071-4.805978 3.132254-3.849564C3.012702-3.706102 2.570361-3.251806 2.12802-3.084433L3.359402-7.998007Z'/>
<path id='g3-108' d='M3.036613-7.998007C3.048568-8.045828 3.072478-8.117559 3.072478-8.177335C3.072478-8.296887 2.952927-8.296887 2.929016-8.296887C2.917061-8.296887 2.486675-8.261021 2.271482-8.237111C2.068244-8.225156 1.888917-8.201245 1.673724-8.18929C1.3868-8.16538 1.303113-8.153425 1.303113-7.938232C1.303113-7.81868 1.422665-7.81868 1.542217-7.81868C2.15193-7.81868 2.15193-7.711083 2.15193-7.591532C2.15193-7.543711 2.15193-7.519801 2.092154-7.304608L.609714-1.374844C.573848-1.243337 .549938-1.147696 .549938-.956413C.549938-.358655 .992279 .119552 1.601993 .119552C1.996513 .119552 2.259527-.143462 2.450809-.514072C2.654047-.908593 2.82142-1.661768 2.82142-1.709589C2.82142-1.769365 2.773599-1.817186 2.701868-1.817186C2.594271-1.817186 2.582316-1.75741 2.534496-1.578082C2.319303-.753176 2.10411-.119552 1.625903-.119552C1.267248-.119552 1.267248-.502117 1.267248-.669489C1.267248-.71731 1.267248-.968369 1.350934-1.303113L3.036613-7.998007Z'/>
<path id='g3-120' d='M5.66675-4.877709C5.284184-4.805978 5.140722-4.519054 5.140722-4.291905C5.140722-4.004981 5.36787-3.90934 5.535243-3.90934C5.893898-3.90934 6.144956-4.220174 6.144956-4.542964C6.144956-5.045081 5.571108-5.272229 5.068991-5.272229C4.339726-5.272229 3.93325-4.554919 3.825654-4.327771C3.550685-5.224408 2.809465-5.272229 2.594271-5.272229C1.374844-5.272229 .729265-3.706102 .729265-3.443088C.729265-3.395268 .777086-3.335492 .860772-3.335492C.956413-3.335492 .980324-3.407223 1.004234-3.455044C1.41071-4.782067 2.211706-5.033126 2.558406-5.033126C3.096389-5.033126 3.203985-4.531009 3.203985-4.244085C3.203985-3.981071 3.132254-3.706102 2.988792-3.132254L2.582316-1.494396C2.402989-.777086 2.056289-.119552 1.422665-.119552C1.362889-.119552 1.06401-.119552 .812951-.274969C1.243337-.358655 1.338979-.71731 1.338979-.860772C1.338979-1.099875 1.159651-1.243337 .932503-1.243337C.645579-1.243337 .334745-.992279 .334745-.609714C.334745-.107597 .896638 .119552 1.41071 .119552C1.984558 .119552 2.391034-.334745 2.642092-.824907C2.833375-.119552 3.431133 .119552 3.873474 .119552C5.092902 .119552 5.738481-1.446575 5.738481-1.709589C5.738481-1.769365 5.69066-1.817186 5.618929-1.817186C5.511333-1.817186 5.499377-1.75741 5.463512-1.661768C5.140722-.609714 4.447323-.119552 3.90934-.119552C3.490909-.119552 3.263761-.430386 3.263761-.920548C3.263761-1.183562 3.311582-1.374844 3.502864-2.163885L3.921295-3.789788C4.100623-4.507098 4.507098-5.033126 5.057036-5.033126C5.080946-5.033126 5.415691-5.033126 5.66675-4.877709Z'/>
<path id='g3-121' d='M3.144209 1.338979C2.82142 1.793275 2.355168 2.199751 1.769365 2.199751C1.625903 2.199751 1.052055 2.175841 .872727 1.625903C.908593 1.637858 .968369 1.637858 .992279 1.637858C1.350934 1.637858 1.590037 1.327024 1.590037 1.052055S1.362889 .681445 1.183562 .681445C.992279 .681445 .573848 .824907 .573848 1.41071C.573848 2.020423 1.08792 2.438854 1.769365 2.438854C2.964882 2.438854 4.172354 1.338979 4.507098 .011955L5.678705-4.65056C5.69066-4.710336 5.71457-4.782067 5.71457-4.853798C5.71457-5.033126 5.571108-5.152677 5.391781-5.152677C5.284184-5.152677 5.033126-5.104857 4.937484-4.746202L4.052802-1.231382C3.993026-1.016189 3.993026-.992279 3.897385-.860772C3.658281-.526027 3.263761-.119552 2.689913-.119552C2.020423-.119552 1.960648-.777086 1.960648-1.099875C1.960648-1.78132 2.283437-2.701868 2.606227-3.56264C2.737733-3.90934 2.809465-4.076712 2.809465-4.315816C2.809465-4.817933 2.450809-5.272229 1.865006-5.272229C.765131-5.272229 .32279-3.53873 .32279-3.443088C.32279-3.395268 .37061-3.335492 .454296-3.335492C.561893-3.335492 .573848-3.383313 .621669-3.550685C.908593-4.554919 1.362889-5.033126 1.829141-5.033126C1.936737-5.033126 2.139975-5.033126 2.139975-4.638605C2.139975-4.327771 2.008468-3.981071 1.829141-3.526775C1.243337-1.960648 1.243337-1.566127 1.243337-1.279203C1.243337-.143462 2.056289 .119552 2.654047 .119552C3.000747 .119552 3.431133 .011955 3.849564-.430386L3.861519-.418431C3.682192 .286924 3.56264 .753176 3.144209 1.338979Z'/>
</defs>
<g id='page1' transform='matrix(1.13 0 0 1.13 -63.986043 -61.019978)'>
<use x='56.413267' y='71.133381' xlink:href='#g3-32'/>
<use x='64.452483' y='66.197195' xlink:href='#g2-76'/>
<use x='64.023534' y='74.088896' xlink:href='#g2-107'/>
<use x='68.64515' y='74.088896' xlink:href='#g2-59'/>
<use x='70.997473' y='74.088896' xlink:href='#g2-108'/>
<use x='74.11773' y='71.133381' xlink:href='#g4-40'/>
<use x='78.670056' y='71.133381' xlink:href='#g3-120'/>
<use x='85.322143' y='71.133381' xlink:href='#g3-59'/>
<use x='90.566302' y='71.133381' xlink:href='#g3-121'/>
<use x='96.702954' y='71.133381' xlink:href='#g4-41'/>
<use x='104.576109' y='71.133381' xlink:href='#g4-61'/>
<use x='117.00159' y='71.133381' xlink:href='#g4-115'/>
<use x='121.618949' y='71.133381' xlink:href='#g4-105'/>
<use x='124.87061' y='71.133381' xlink:href='#g4-110'/>
<use x='133.36643' y='54.276444' xlink:href='#g0-20'/>
<use x='140.871641' y='63.045622' xlink:href='#g3-107'/>
<use x='147.361145' y='63.045622' xlink:href='#g3-25'/>
<rect x='140.871641' y='67.905495' height='.478187' width='13.558774'/>
<use x='141.036261' y='79.334043' xlink:href='#g3-76'/>
<use x='149.000768' y='81.127306' xlink:href='#g2-120'/>
<use x='155.625929' y='71.133381' xlink:href='#g4-40'/>
<use x='160.178255' y='71.133381' xlink:href='#g3-120'/>
<use x='169.487005' y='71.133381' xlink:href='#g1-0'/>
<use x='181.442166' y='71.133381' xlink:href='#g3-120'/>
<use x='188.094253' y='66.197195' xlink:href='#g2-76'/>
<use x='188.094253' y='74.088896' xlink:href='#g2-109'/>
<use x='195.584779' y='74.088896' xlink:href='#g2-97'/>
<use x='200.082789' y='74.088896' xlink:href='#g2-120'/>
<use x='205.34782' y='71.133381' xlink:href='#g4-41'/>
<use x='209.900146' y='54.276444' xlink:href='#g0-21'/>
<use x='218.202333' y='71.133381' xlink:href='#g4-115'/>
<use x='222.819692' y='71.133381' xlink:href='#g4-105'/>
<use x='226.071353' y='71.133381' xlink:href='#g4-110'/>
<use x='234.567173' y='54.276444' xlink:href='#g0-20'/>
<use x='243.130018' y='63.045622' xlink:href='#g3-108'/>
<use x='246.879827' y='63.045622' xlink:href='#g3-25'/>
<rect x='242.072385' y='67.905495' height='.478187' width='12.934345'/>
<use x='242.072385' y='79.334043' xlink:href='#g3-76'/>
<use x='250.036891' y='81.127306' xlink:href='#g2-121'/>
<use x='256.202244' y='71.133381' xlink:href='#g4-40'/>
<use x='260.754569' y='71.133381' xlink:href='#g3-121'/>
<use x='269.547885' y='71.133381' xlink:href='#g1-0'/>
<use x='281.503045' y='71.133381' xlink:href='#g3-121'/>
<use x='287.639697' y='66.197195' xlink:href='#g2-76'/>
<use x='287.210748' y='74.088896' xlink:href='#g2-109'/>
<use x='294.701274' y='74.088896' xlink:href='#g2-97'/>
<use x='299.199284' y='74.088896' xlink:href='#g2-120'/>
<use x='304.464315' y='71.133381' xlink:href='#g4-41'/>
<use x='309.016641' y='54.276444' xlink:href='#g0-21'/>
</g>
</svg>