<?xml version='1.0' encoding='UTF-8'?>
<!-- Generated by CodeCogs with dvisvgm 2.9.1 -->
<svg version='1.1' xmlns='http://www.w3.org/2000/svg' xmlns:xlink='http://www.w3.org/1999/xlink' width='27.500035pt' height='13.522849pt' viewBox='-.239051 -.240635 27.500035 13.522849'>
<defs>
<path id='g1-40' d='M3.88543 2.905106C3.88543 2.86924 3.88543 2.84533 3.682192 2.642092C2.486675 1.43462 1.817186-.537983 1.817186-2.976837C1.817186-5.296139 2.379078-7.292653 3.765878-8.703362C3.88543-8.810959 3.88543-8.834869 3.88543-8.870735C3.88543-8.942466 3.825654-8.966376 3.777833-8.966376C3.622416-8.966376 2.642092-8.105604 2.056289-6.933998C1.446575-5.726526 1.171606-4.447323 1.171606-2.976837C1.171606-1.912827 1.338979-.490162 1.960648 .789041C2.666002 2.223661 3.646326 3.000747 3.777833 3.000747C3.825654 3.000747 3.88543 2.976837 3.88543 2.905106Z'/>
<path id='g1-41' d='M3.371357-2.976837C3.371357-3.88543 3.251806-5.36787 2.582316-6.75467C1.876961-8.18929 .896638-8.966376 .765131-8.966376C.71731-8.966376 .657534-8.942466 .657534-8.870735C.657534-8.834869 .657534-8.810959 .860772-8.607721C2.056289-7.400249 2.725778-5.427646 2.725778-2.988792C2.725778-.669489 2.163885 1.327024 .777086 2.737733C.657534 2.84533 .657534 2.86924 .657534 2.905106C.657534 2.976837 .71731 3.000747 .765131 3.000747C.920548 3.000747 1.900872 2.139975 2.486675 .968369C3.096389-.251059 3.371357-1.542217 3.371357-2.976837Z'/>
<path id='g0-69' d='M8.308842-2.773599C8.320797-2.809465 8.356663-2.893151 8.356663-2.940971C8.356663-3.000747 8.308842-3.060523 8.237111-3.060523C8.18929-3.060523 8.16538-3.048568 8.129514-3.012702C8.105604-3.000747 8.105604-2.976837 7.998007-2.737733C7.292653-1.06401 6.77858-.3467 4.865753-.3467H3.120299C2.952927-.3467 2.929016-.3467 2.857285-.358655C2.725778-.37061 2.713823-.394521 2.713823-.490162C2.713823-.573848 2.737733-.645579 2.761644-.753176L3.58655-4.052802H4.770112C5.702615-4.052802 5.774346-3.849564 5.774346-3.490909C5.774346-3.371357 5.774346-3.263761 5.69066-2.905106C5.66675-2.857285 5.654795-2.809465 5.654795-2.773599C5.654795-2.689913 5.71457-2.654047 5.786301-2.654047C5.893898-2.654047 5.905853-2.737733 5.953674-2.905106L6.635118-5.678705C6.635118-5.738481 6.587298-5.798257 6.515567-5.798257C6.40797-5.798257 6.396015-5.750436 6.348194-5.583064C6.109091-4.662516 5.869988-4.399502 4.805978-4.399502H3.670237L4.411457-7.340473C4.519054-7.758904 4.542964-7.79477 5.033126-7.79477H6.742715C8.2132-7.79477 8.51208-7.400249 8.51208-6.491656C8.51208-6.479701 8.51208-6.144956 8.464259-5.750436C8.452304-5.702615 8.440349-5.630884 8.440349-5.606974C8.440349-5.511333 8.500125-5.475467 8.571856-5.475467C8.655542-5.475467 8.703362-5.523288 8.727273-5.738481L8.978331-7.830635C8.978331-7.866501 9.002242-7.986052 9.002242-8.009963C9.002242-8.141469 8.894645-8.141469 8.679452-8.141469H2.84533C2.618182-8.141469 2.49863-8.141469 2.49863-7.926276C2.49863-7.79477 2.582316-7.79477 2.785554-7.79477C3.526775-7.79477 3.526775-7.711083 3.526775-7.579577C3.526775-7.519801 3.514819-7.47198 3.478954-7.340473L1.865006-.884682C1.75741-.466252 1.733499-.3467 .896638-.3467C.669489-.3467 .549938-.3467 .549938-.131507C.549938 0 .621669 0 .860772 0H6.862267C7.12528 0 7.137235-.011955 7.220922-.203238L8.308842-2.773599Z'/>
<path id='g0-102' d='M5.332005-4.805978C5.571108-4.805978 5.66675-4.805978 5.66675-5.033126C5.66675-5.152677 5.571108-5.152677 5.355915-5.152677H4.387547C4.614695-6.38406 4.782067-7.232877 4.877709-7.615442C4.94944-7.902366 5.200498-8.177335 5.511333-8.177335C5.762391-8.177335 6.01345-8.069738 6.133001-7.962142C5.66675-7.914321 5.523288-7.567621 5.523288-7.364384C5.523288-7.12528 5.702615-6.981818 5.929763-6.981818C6.168867-6.981818 6.527522-7.185056 6.527522-7.639352C6.527522-8.141469 6.025405-8.416438 5.499377-8.416438C4.985305-8.416438 4.483188-8.033873 4.244085-7.567621C4.028892-7.149191 3.90934-6.718804 3.634371-5.152677H2.833375C2.606227-5.152677 2.486675-5.152677 2.486675-4.937484C2.486675-4.805978 2.558406-4.805978 2.797509-4.805978H3.56264C3.347447-3.694147 2.857285-.992279 2.582316 .286924C2.379078 1.327024 2.199751 2.199751 1.601993 2.199751C1.566127 2.199751 1.219427 2.199751 1.004234 1.972603C1.613948 1.924782 1.613948 1.398755 1.613948 1.3868C1.613948 1.147696 1.43462 1.004234 1.207472 1.004234C.968369 1.004234 .609714 1.207472 .609714 1.661768C.609714 2.175841 1.135741 2.438854 1.601993 2.438854C2.82142 2.438854 3.323537 .251059 3.455044-.3467C3.670237-1.267248 4.25604-4.447323 4.315816-4.805978H5.332005Z'/>
</defs>
<g id='page1' transform='matrix(1.13 0 0 1.13 -63.986043 -64.41)'>
<use x='56.413267' y='65.753425' xlink:href='#g0-102'/>
<use x='63.459704' y='65.753425' xlink:href='#g1-40'/>
<use x='68.012029' y='65.753425' xlink:href='#g0-69'/>
<use x='77.378224' y='65.753425' xlink:href='#g1-41'/>
</g>
</svg>