<?xml version='1.0' encoding='UTF-8'?>
<!-- This file was generated by dvisvgm 2.9.1 -->
<svg version='1.1' xmlns='http://www.w3.org/2000/svg' xmlns:xlink='http://www.w3.org/1999/xlink' width='10.651017pt' height='9.231383pt' viewBox='-.239051 -.244012 10.651017 9.231383'>
<defs>
<path id='g0-86' d='M7.400249-6.838356C7.806725-7.483935 8.177335-7.770859 8.787049-7.81868C8.9066-7.830635 9.002242-7.830635 9.002242-8.045828C9.002242-8.093649 8.978331-8.16538 8.870735-8.16538C8.655542-8.16538 8.141469-8.141469 7.926276-8.141469C7.579577-8.141469 7.220922-8.16538 6.886177-8.16538C6.790535-8.16538 6.670984-8.16538 6.670984-7.938232C6.670984-7.830635 6.77858-7.81868 6.826401-7.81868C7.268742-7.782814 7.316563-7.567621 7.316563-7.424159C7.316563-7.244832 7.149191-6.969863 7.137235-6.957908L3.383313-1.004234L2.546451-7.44807C2.546451-7.79477 3.16812-7.81868 3.299626-7.81868C3.478954-7.81868 3.58655-7.81868 3.58655-8.045828C3.58655-8.16538 3.455044-8.16538 3.419178-8.16538C3.21594-8.16538 2.976837-8.141469 2.773599-8.141469H2.10411C1.231382-8.141469 .872727-8.16538 .860772-8.16538C.789041-8.16538 .645579-8.16538 .645579-7.950187C.645579-7.81868 .729265-7.81868 .920548-7.81868C1.530262-7.81868 1.566127-7.711083 1.601993-7.412204L2.558406-.035866C2.594271 .215193 2.594271 .251059 2.761644 .251059C2.905106 .251059 2.964882 .215193 3.084433 .02391L7.400249-6.838356Z'/>
</defs>
<g id='page1' transform='matrix(1.13 0 0 1.13 -63.986043 -65.313999)'>
<use x='56.413267' y='65.753425' xlink:href='#g0-86'/>
</g>
</svg>